<?xml version="1.0" encoding="UTF-8" standalone="no"?>
<svg
   xmlns:dc="http://purl.org/dc/elements/1.1/"
   xmlns:cc="http://creativecommons.org/ns#"
   xmlns:rdf="http://www.w3.org/1999/02/22-rdf-syntax-ns#"
   xmlns:svg="http://www.w3.org/2000/svg"
   xmlns="http://www.w3.org/2000/svg"
   xmlns:sodipodi="http://sodipodi.sourceforge.net/DTD/sodipodi-0.dtd"
   xmlns:inkscape="http://www.inkscape.org/namespaces/inkscape"
   id="Layer_1"
   data-name="Layer 1"
   viewBox="0 0 32 32"
   version="1.1"
   sodipodi:docname="print.svg"
   inkscape:version="1.0.1 (3bc2e813f5, 2020-09-07)">
  <metadata
     id="metadata17">
    <rdf:RDF>
      <cc:Work
         rdf:about="">
        <dc:format>image/svg+xml</dc:format>
        <dc:type
           rdf:resource="http://purl.org/dc/dcmitype/StillImage" />
      </cc:Work>
    </rdf:RDF>
  </metadata>
  <sodipodi:namedview
     pagecolor="#ffffff"
     bordercolor="#666666"
     borderopacity="1"
     objecttolerance="10"
     gridtolerance="10"
     guidetolerance="10"
     inkscape:pageopacity="0"
     inkscape:pageshadow="2"
     inkscape:window-width="1920"
     inkscape:window-height="1017"
     id="namedview15"
     showgrid="false"
     inkscape:zoom="26.5625"
     inkscape:cx="16"
     inkscape:cy="16"
     inkscape:window-x="-8"
     inkscape:window-y="-8"
     inkscape:window-maximized="1"
     inkscape:current-layer="Layer_1" />
  <defs
     id="defs4">
    <style
       id="style2">.cls-1{fill:#0f5c47;}</style>
  </defs>
  <path
     class="cls-1"
     d="M28.08,11.55H24.86V5.35a1.47,1.47,0,0,0-1.47-1.47H10.89a2.32,2.32,0,0,0-1.65.68L5.56,8.24a2.32,2.32,0,0,0-.68,1.65V26.65a1.47,1.47,0,0,0,1.47,1.47h17a1.47,1.47,0,0,0,1.47-1.47V22.16h3.22a1,1,0,0,0,1-1.05V12.59A1,1,0,0,0,28.08,11.55Zm-.19,1.23v8.14H10.38V12.78Zm-4.27-1.23H10.18a1,1,0,0,0-1,1v8.52a1,1,0,0,0,1,1.05H23.62v4.49a.23.23,0,0,1-.23.24h-17a.24.24,0,0,1-.24-.24V10.23H9.76a1.47,1.47,0,0,0,1.47-1.47V5.11H23.39a.23.23,0,0,1,.23.24ZM6.56,9,10,5.56v3.2A.24.24,0,0,1,9.76,9Z"
     id="path6"
     style="fill:#fd4f00;fill-opacity:1" />
  <path
     class="cls-1"
     d="M22.54,19.6a.62.62,0,0,0,.62-.62V17.9h1.08a.62.62,0,1,0,0-1.24H23.16V15.34h1.51a.62.62,0,1,0,0-1.24H22.54a.62.62,0,0,0-.62.62V19A.62.62,0,0,0,22.54,19.6Z"
     id="path8"
     style="fill:#fd4f00;fill-opacity:1" />
  <path
     class="cls-1"
     d="M14,19.6a.62.62,0,0,0,.62-.62V17.9h1.08a1.47,1.47,0,0,0,1.47-1.47v-.86a1.47,1.47,0,0,0-1.47-1.47H14a.62.62,0,0,0-.62.62V19A.62.62,0,0,0,14,19.6Zm.62-2.94V15.34h1.08a.23.23,0,0,1,.23.23v.86a.23.23,0,0,1-.23.23Z"
     id="path10"
     style="fill:#fd4f00;fill-opacity:1" />
  <path
     class="cls-1"
     d="M18.28,19.6h1.28a1.9,1.9,0,0,0,1.89-1.9V16a1.9,1.9,0,0,0-1.89-1.9H18.28a.62.62,0,0,0-.62.62V19A.62.62,0,0,0,18.28,19.6Zm.62-1.24v-3h.66a.67.67,0,0,1,.66.66v1.7a.66.66,0,0,1-.66.66Z"
     id="path12"
     style="fill:#fd4f00;fill-opacity:1" />
</svg>
